<?xml version="1.0" encoding="utf-8"?>
<!-- Generator: Adobe Illustrator 19.1.1, SVG Export Plug-In . SVG Version: 6.00 Build 0)  -->
<svg version="1.1" id="Calque_1" xmlns="http://www.w3.org/2000/svg" xmlns:xlink="http://www.w3.org/1999/xlink" x="0px" y="0px"
	 viewBox="0 0 186.9 243.7" style="enable-background:new 0 0 186.9 243.7;" xml:space="preserve">
<style type="text/css">
	.st0{clip-path:url(#SVGID_2_);}
	.st1{fill-rule:evenodd;clip-rule:evenodd;fill:#E5E2DA;}
	.st2{fill:#BE8D00;}
</style>
<g>
	<defs>
		<rect id="SVGID_1_" x="-546.5" y="2982.4" width="256.3" height="595.9"/>
	</defs>
	<clipPath id="SVGID_2_">
		<use xlink:href="#SVGID_1_"  style="overflow:visible;"/>
	</clipPath>
	<g class="st0">
		<g>
			<g>
				<path class="st1" d="M-475.4,3111c3,4.4,5.2,10.9,5.4,20.6c0,0.5,0,17.5-0.3,42.4c0.6,0.1,1.2,0,1.9,0
					c6.2-0.3,12.4-0.6,18.7-0.7c-1.3-3.1-2.1-6.6-2-10.3c0-5.6,0.1-10,0.2-14.3c0.1-6.4,0.2-12.4,0.1-20.9c-0.1-9.1-0.1-17-4-20.3
					c-1.7-1.5-4.5-2.3-8.2-2.4C-466.9,3106-471.3,3107.7-475.4,3111"/>
				<path class="st1" d="M-353.7,3112.6c3.7,6,5.9,14.3,4.7,25.7c0,0.2-1.4,11.9-2.3,25.4c-0.5,6.6-3.3,12.7-8,17.2
					c-2.5,2.4-5.3,4.1-8.3,5.2c1.6,4.4,4.5,7.7,7.4,9.7c4.9,3.5,10.6,4.2,15.2,1.9c4.7-2.3,8-7.7,9.4-15.4c1.1-14,2.6-28.3,4.7-43.2
					c2.1-15.9-0.3-25.6-7.9-30.3C-342.8,3108.9-348.6,3109.5-353.7,3112.6"/>
				<path class="st1" d="M-342.5,3202.9c-6.5,3.2-14.4,2.3-21-2.3c-1.7-1.1-3.1-2.4-4.4-3.9c-1.5,40-2.7,91.5-1,129
					c0.7,1,3.4,4.3,9.2,6c9.2-1.3,18.5-2.8,27.6-4.7c-5.3-48-6.8-87.9-4.5-128.7c-0.4,0.4-0.7,0.8-1.1,1.1
					C-339.5,3201.1-341.1,3202.2-342.5,3202.9"/>
				<path class="st1" d="M-491.5,3320.1l9.9,0.2l2.9,0.1l2.9,0l86.8,1.8l-0.3,5.6l-86.9-1.8l-2.9-0.1l-2.9-0.1l-9.7-0.2
					L-491.5,3320.1z M-366.1,3335.4c-1.5-0.7-2.8-1.6-3.8-2.4c-2.5-2-3.8-3.8-4.2-4.4c-0.5-0.7-0.6-1.3-0.7-1.9l0,0
					c-1.9-40.7-0.3-98,1.3-139.3c0-0.1,0-0.2,0-0.4c0.1-0.8,0.1-1.6,0.1-2.4c0-1,0.1-1.9,0.1-2.9c0.1-2.3,0.2-4.5,0.3-6.7
					c1.1-23.5,2-39.4,2-39.9c0.8-10.1,3.9-18,9.3-23.4c0.2-0.2,0.3-0.3,0.5-0.5c0.5-0.5,1.1-1,1.6-1.4c0.8-0.6,1.5-1.2,2.4-1.7
					c0.8-0.6,1.7-1.1,2.6-1.5c-1.5-0.2-3.1-0.4-4.7-0.6c-1.6-0.2-3.3-0.4-5-0.6c-0.2,0-0.3,0-0.5,0c-2.1-0.2-4-0.2-5.8,0
					c-11.4,1.1-16.8,9.7-17.8,27.3c-0.5,6.9-0.8,8.8-1,10.5c-0.2,1.6-0.5,3.1-0.9,10.3c-0.4,7.1-3.3,13.6-8.2,18.3
					c-4.4,4.3-10.1,6.6-15.9,6.6c-8.1,0-16.3,0.1-24.5,0.3c-1.4,0-2.8,0.1-4.2,0.1c-1.2,0-2.4,0.1-3.6,0.1
					c-7.3,0.2-14.5,0.5-21.8,0.9c-0.7,0-1.4,0-2.1,0c-1,0-2-0.1-2.9-0.3c-1-0.2-2-0.4-2.9-0.7c-8.5-2.7-14.1-10.4-14.5-21
					c-0.2-13.4-0.8-18.5-0.8-18.5c-0.6-11.6,2.1-21,8-28c0.6-0.8,1.3-1.5,2-2.2c0.1-0.1,0.3-0.3,0.4-0.4c0.6-0.6,1.2-1.1,1.8-1.6
					c0.1-0.1,0.2-0.2,0.2-0.2c0,0,0.1-0.1,0.1-0.1c0.2-0.1,0.3-0.3,0.5-0.4c-2,0.2-4.1,0.5-6.4,0.8c-1.5,0.2-3.2,0.4-4.9,0.6
					c-1.1,0.2-2.1,0.4-3.1,0.6c-1.4,0.3-2.8,0.8-4.1,1.3c-2.8,1.1-5.1,2.6-7,4.4c-5.5,5.4-7.8,13.9-7,26
					c6.8,68.6,3.2,115.7-6.3,183.5c2.5,10.4,14.3,14.1,23.7,15.4l0.4,0.1c20.2,5.3,84.6,19.4,138.2-0.6c-2.1-0.1-4-0.4-5.7-0.8
					C-362.6,3336.9-364.5,3336.2-366.1,3335.4z"/>
			</g>
		</g>
		<g>
			<g>
				<g>
					<path class="st2" d="M-441.9,3208.1c1.9-3.1,4.2-5.3,6.8-6.3c0,0-7.8,0-13.6-0.1c-8-0.2-12.1,1.7-16.3,8.6l-12.1,20.1l16.3,9
						L-441.9,3208.1z"/>
					<path class="st2" d="M-439.8,3209.2l-3.4,5.6l8.1,14l-5.7,3.3l19.7,1.9l8.3-18l-5.7,3.3l-6.5-11.2c-1.2-1.7-2.5-2.9-3.8-3.6
						C-432.3,3202.5-436.4,3203.7-439.8,3209.2z"/>
					<path class="st2" d="M-439.8,3209.2l-3.4,5.6l8.1,14l-5.7,3.3l19.7,1.9l8.3-18l-5.7,3.3l-6.5-11.2c-1.2-1.7-2.5-2.9-3.8-3.6
						C-432.3,3202.5-436.4,3203.7-439.8,3209.2z"/>
				</g>
				<g>
					<path class="st2" d="M-483.2,3265.8l6.5-0.1l8.6-14.3l5.6,3.1l-7.6-17.7l-19.8,2.6l5.6,3.1l-6.9,11.5c-1,1.9-1.4,3.6-1.4,5.1
						C-492.7,3263.1-489.7,3265.9-483.2,3265.8z"/>
					<path class="st2" d="M-492,3265.9c0,0,3.7,6.6,6.3,11.6c3.6,6.8,7.2,9.4,15.3,9.3l23.5-0.4l0.3-18.6l-36.7,0.6
						C-486.9,3268.3-489.9,3267.5-492,3265.9z"/>
				</g>
				<g>
					<path class="st2" d="M-400.3,3250.6l-11.4-19.7l-16.7,9.6l17.8,30.8c1.8,3.1,2.4,6,2,8.7c0,0,4.1-6.6,7.3-11.5
						C-396.9,3261.8-396.4,3257.4-400.3,3250.6z"/>
					<path class="st2" d="M-415.9,3267.1l-16.7,0.3l0.1-6.3l-12.1,15.9l11.6,15.5l0.1-6.3l13.4-0.2c2.1-0.2,3.9-0.7,5.2-1.5
						c3.7-2.2,4.7-6.2,1.7-11.7L-415.9,3267.1z"/>
				</g>
			</g>
		</g>
	</g>
</g>
<g>
	<g>
		<g>
			<path class="st1" d="M41.6,6c3,4.4,5.2,10.9,5.4,20.6c0,0.5,0,17.5-0.3,42.4c0.6,0.1,1.2,0,1.9,0c6.2-0.3,12.4-0.6,18.7-0.7
				c-1.3-3.1-2.1-6.6-2-10.3c0-5.6,0.1-10,0.2-14.3c0.1-6.4,0.2-12.4,0.1-20.9c-0.1-9.1-0.1-17-4-20.3c-1.7-1.5-4.5-2.3-8.2-2.4
				C50.1,1,45.7,2.7,41.6,6"/>
			<path class="st1" d="M163.3,7.6c3.7,6,5.9,14.3,4.7,25.7c0,0.2-1.4,11.9-2.3,25.4c-0.5,6.6-3.3,12.7-8,17.2
				c-2.5,2.4-5.3,4.1-8.3,5.2c1.6,4.4,4.5,7.7,7.4,9.7c4.9,3.5,10.6,4.2,15.2,1.9c4.7-2.3,8-7.7,9.4-15.4c1.1-14,2.6-28.3,4.7-43.2
				c2.1-15.9-0.3-25.6-7.9-30.3C174.2,3.9,168.4,4.5,163.3,7.6"/>
			<path class="st1" d="M174.5,97.9c-6.5,3.2-14.4,2.3-21-2.3c-1.7-1.1-3.1-2.4-4.4-3.9c-1.5,40-2.7,91.5-1,129c0.7,1,3.4,4.3,9.2,6
				c9.2-1.3,18.5-2.8,27.6-4.7c-5.3-48-6.8-87.9-4.5-128.7c-0.4,0.4-0.7,0.8-1.1,1.1C177.5,96.1,175.9,97.2,174.5,97.9"/>
			<path class="st1" d="M25.5,215.1l9.9,0.2l2.9,0.1l2.9,0l86.8,1.8l-0.3,5.6l-86.9-1.8l-2.9-0.1l-2.9-0.1l-9.7-0.2L25.5,215.1z
				 M150.9,230.4c-1.5-0.7-2.8-1.6-3.8-2.4c-2.5-2-3.8-3.8-4.2-4.4c-0.5-0.7-0.6-1.3-0.7-1.9l0,0c-1.9-40.7-0.3-98,1.3-139.3
				c0-0.1,0-0.2,0-0.4c0.1-0.8,0.1-1.6,0.1-2.4c0-1,0.1-1.9,0.1-2.9c0.1-2.3,0.2-4.5,0.3-6.7c1.1-23.5,2-39.4,2-39.9
				c0.8-10.1,3.9-18,9.3-23.4c0.2-0.2,0.3-0.3,0.5-0.5c0.5-0.5,1.1-1,1.6-1.4c0.8-0.6,1.5-1.2,2.4-1.7c0.8-0.6,1.7-1.1,2.6-1.5
				c-1.5-0.2-3.1-0.4-4.7-0.6c-1.6-0.2-3.3-0.4-5-0.6c-0.2,0-0.3,0-0.5,0c-2.1-0.2-4-0.2-5.8,0c-11.4,1.1-16.8,9.7-17.8,27.3
				c-0.5,6.9-0.8,8.8-1,10.5c-0.2,1.6-0.5,3.1-0.9,10.3c-0.4,7.1-3.3,13.6-8.2,18.3c-4.4,4.3-10.1,6.6-15.9,6.6
				c-8.1,0-16.3,0.1-24.5,0.3c-1.4,0-2.8,0.1-4.2,0.1c-1.2,0-2.4,0.1-3.6,0.1c-7.3,0.2-14.5,0.5-21.8,0.9c-0.7,0-1.4,0-2.1,0
				c-1,0-2-0.1-2.9-0.3c-1-0.2-2-0.4-2.9-0.7c-8.5-2.7-14.1-10.4-14.5-21c-0.2-13.4-0.8-18.5-0.8-18.5c-0.6-11.6,2.1-21,8-28
				c0.6-0.8,1.3-1.5,2-2.2c0.1-0.1,0.3-0.3,0.4-0.4c0.6-0.6,1.2-1.1,1.8-1.6c0.1-0.1,0.2-0.2,0.2-0.2c0,0,0.1-0.1,0.1-0.1
				c0.2-0.1,0.3-0.3,0.5-0.4c-2,0.2-4.1,0.5-6.4,0.8c-1.5,0.2-3.2,0.4-4.9,0.6c-1.1,0.2-2.1,0.4-3.1,0.6c-1.4,0.3-2.8,0.8-4.1,1.3
				c-2.8,1.1-5.1,2.6-7,4.4c-5.5,5.4-7.8,13.9-7,26c6.8,68.6,3.2,115.7-6.3,183.5c2.5,10.4,14.3,14.1,23.7,15.4l0.4,0.1
				c20.2,5.3,84.6,19.4,138.2-0.6c-2.1-0.1-4-0.4-5.7-0.8C154.4,231.9,152.5,231.2,150.9,230.4z"/>
		</g>
	</g>
	<g>
		<g>
			<g>
				<path class="st2" d="M75.1,103.1c1.9-3.1,4.2-5.3,6.8-6.3c0,0-7.8,0-13.6-0.1c-8-0.2-12.1,1.7-16.3,8.6l-12.1,20.1l16.3,9
					L75.1,103.1z"/>
				<path class="st2" d="M77.2,104.2l-3.4,5.6l8.1,14l-5.7,3.3L96,129l8.3-18l-5.7,3.3L92.1,103c-1.2-1.7-2.5-2.9-3.8-3.6
					C84.7,97.5,80.6,98.7,77.2,104.2z"/>
				<path class="st2" d="M77.2,104.2l-3.4,5.6l8.1,14l-5.7,3.3L96,129l8.3-18l-5.7,3.3L92.1,103c-1.2-1.7-2.5-2.9-3.8-3.6
					C84.7,97.5,80.6,98.7,77.2,104.2z"/>
			</g>
			<g>
				<path class="st2" d="M33.8,160.8l6.5-0.1l8.6-14.3l5.6,3.1l-7.6-17.7l-19.8,2.6l5.6,3.1l-6.9,11.5c-1,1.9-1.4,3.6-1.4,5.1
					C24.3,158.1,27.3,160.9,33.8,160.8z"/>
				<path class="st2" d="M25,160.9c0,0,3.7,6.6,6.3,11.6c3.6,6.8,7.2,9.4,15.3,9.3l23.5-0.4l0.3-18.6l-36.7,0.6
					C30.1,163.3,27.1,162.5,25,160.9z"/>
			</g>
			<g>
				<path class="st2" d="M116.7,145.6l-11.4-19.7l-16.7,9.6l17.8,30.8c1.8,3.1,2.4,6,2,8.7c0,0,4.1-6.6,7.3-11.5
					C120.1,156.8,120.6,152.4,116.7,145.6z"/>
				<path class="st2" d="M101.1,162.1l-16.7,0.3l0.1-6.3l-12.1,15.9l11.6,15.5L84,181l13.4-0.2c2.1-0.2,3.9-0.7,5.2-1.5
					c3.7-2.2,4.7-6.2,1.7-11.7L101.1,162.1z"/>
			</g>
		</g>
	</g>
</g>
</svg>
