<?xml version="1.0" encoding="utf-8"?>
<!-- Generator: Adobe Illustrator 19.1.1, SVG Export Plug-In . SVG Version: 6.00 Build 0)  -->
<svg version="1.1" id="Calque_1" xmlns="http://www.w3.org/2000/svg" xmlns:xlink="http://www.w3.org/1999/xlink" x="0px" y="0px"
	 viewBox="0 0 81 52" style="enable-background:new 0 0 81 52;" xml:space="preserve">
<style type="text/css">
	.st0{fill:#EF4D0C;}
	.st1{fill:#22B573;}
	.st2{fill:#E5E2DA;}
	.st3{fill:#F7931E;}
	.st4{fill:#EF4D0C;stroke:#08212D;stroke-width:15;stroke-miterlimit:10;}
	.st5{opacity:0.34;fill:#AA350C;}
	.st6{fill:#AA350C;}
	.st7{fill:#FFFFFF;}
</style>
<path class="st0" d="M-77.4-274.2"/>
<g>
	<rect x="642.7" y="0.3" class="st1" width="27.1" height="52.2"/>
	<rect x="669.4" y="0.3" class="st2" width="27.1" height="52.2"/>
	<rect x="696.2" y="0.3" class="st3" width="27.1" height="52.2"/>
</g>
<path class="st4" d="M624.2-59.8"/>
<path class="st5" d="M784.8,229"/>
<g>
	<polygon class="st6" points="54.3,0 53.9,0 27.5,0 27.2,0 0,0 0,52 27.2,52 27.5,52 53.9,52 54.3,52 81,52 81,0 	"/>
	<rect x="18" y="0.3" class="st7" width="6.3" height="51.8"/>
	<rect x="0" y="22.5" class="st7" width="81.1" height="7.4"/>
</g>
</svg>
