<?xml version="1.0" encoding="utf-8"?>
<!-- Generator: Adobe Illustrator 19.1.1, SVG Export Plug-In . SVG Version: 6.00 Build 0)  -->
<svg version="1.1" id="Calque_1" xmlns="http://www.w3.org/2000/svg" xmlns:xlink="http://www.w3.org/1999/xlink" x="0px" y="0px"
	 viewBox="0 0 249.4 252.6" style="enable-background:new 0 0 249.4 252.6;" xml:space="preserve">
<style type="text/css">
	.st0{fill-rule:evenodd;clip-rule:evenodd;fill:#FFFFFF;}
	.st1{fill:#424D22;}
	.st2{fill:#99AD63;}
	.st3{fill:#7F9441;}
</style>
<g>
	<path class="st0" d="M117.5,8.8c1.3,3.1,1.9,7.3,1,13.2c-0.1,0.3-1.9,10.6-4.7,25.7c0.4,0.1,0.7,0.2,1.1,0.3
		c3.7,0.6,7.4,1.2,11.1,1.9c-0.5-2.1-0.5-4.3-0.1-6.5c0.6-3.4,1.1-6.1,1.6-8.7c0.7-3.9,1.5-7.5,2.3-12.7c0.9-5.6,1.8-10.3-0.2-12.9
		c-0.9-1.1-2.4-2-4.6-2.5C123,6.7,120.2,7.3,117.5,8.8"/>
	<path class="st0" d="M189.2,25.1c1.5,4.1,2,9.5,0,16.2c0,0.1-2.1,7.1-4.1,15.1c-1,4-3.3,7.3-6.6,9.5c-1.7,1.1-3.6,1.8-5.5,2.1
		c0.5,2.9,1.8,5.2,3.3,6.9c2.5,2.7,5.8,3.9,8.8,3.1c3-0.8,5.6-3.7,7.2-8.1c2.2-8.4,4.6-16.9,7.4-25.7c2.9-9.4,2.6-15.6-1.4-19.5
		C196.1,24.2,192.6,23.9,189.2,25.1"/>
	<path class="st0" d="M186.1,81.5c-4.2,1.1-8.8-0.4-12.2-4.1c-0.9-0.9-1.6-1.9-2.2-2.9c-5.2,24.1-11.4,55.3-14.5,78.4
		c0.3,0.7,1.6,3.1,4.8,4.8c5.6,0.4,11.2,0.6,16.9,0.7c2-29.9,5.4-54.3,11.2-78.9c-0.3,0.2-0.5,0.4-0.8,0.5
		C188.1,80.8,187,81.2,186.1,81.5"/>
	<path class="st0" d="M85.5,133.9l5.8,1.4l1.7,0.4l1.7,0.4l51.1,12.1l-0.8,3.4l-51.2-12.1l-1.7-0.4l-1.7-0.4l-5.7-1.3L85.5,133.9z
		 M158,159.1c-0.8-0.6-1.5-1.3-2-1.9c-1.3-1.5-1.9-2.8-2-3.2c-0.2-0.5-0.2-0.9-0.2-1.2l0,0c3.3-25,10.3-59.7,15.8-84.6
		c0-0.1,0-0.1,0.1-0.2c0.1-0.5,0.2-1,0.3-1.5c0.1-0.6,0.3-1.2,0.4-1.7c0.3-1.4,0.6-2.7,0.9-4.1c3.2-14.2,5.4-23.7,5.5-24
		c1.6-6.1,4.3-10.4,8-13.1c0.1-0.1,0.2-0.2,0.3-0.3c0.4-0.2,0.7-0.5,1.1-0.7c0.5-0.3,1-0.5,1.6-0.7c0.6-0.2,1.1-0.4,1.7-0.6
		c-0.9-0.3-1.8-0.6-2.7-1c-0.9-0.3-1.9-0.6-2.9-1c-0.1,0-0.2,0-0.3-0.1c-1.2-0.4-2.3-0.6-3.4-0.7c-6.8-0.8-11,3.7-13.5,14.4
		c-1,4.2-1.4,5.3-1.7,6.2c-0.3,1-0.6,1.8-1.6,6.1c-1,4.2-3.4,7.8-6.8,10.1c-3.1,2.1-6.7,2.7-10.1,2c-4.8-1-9.7-2-14.5-2.9
		c-0.8-0.2-1.7-0.3-2.5-0.5c-0.7-0.1-1.4-0.3-2.1-0.4c-4.3-0.8-8.7-1.5-13-2.2c-0.4-0.1-0.8-0.2-1.2-0.3c-0.6-0.1-1.1-0.3-1.7-0.5
		c-0.6-0.2-1.1-0.5-1.6-0.8c-4.7-2.7-7.2-8.1-6.3-14.6c1.3-8.2,1.5-11.3,1.5-11.4c0.9-7.1,3.5-12.5,7.8-16c0.5-0.4,0.9-0.7,1.4-1.1
		c0.1-0.1,0.2-0.1,0.3-0.2c0.4-0.3,0.8-0.5,1.3-0.7c0.1,0,0.1-0.1,0.2-0.1c0,0,0.1,0,0.1-0.1c0.1-0.1,0.2-0.1,0.3-0.2
		c-1.2-0.1-2.5-0.2-3.9-0.3c-0.9-0.1-1.9-0.2-2.9-0.2c-0.7,0-1.3,0-1.9,0c-0.9,0-1.7,0.1-2.6,0.3c-1.7,0.3-3.3,0.9-4.6,1.8
		c-3.9,2.6-6.1,7.5-6.9,14.9C90.1,64.5,82.9,92.7,70,132.7c0.4,6.6,6.9,10.4,12.4,12.4l0.2,0.1c11.4,5.8,47.9,22.5,81.8,17.1
		c-1.2-0.3-2.3-0.8-3.3-1.2C159.9,160.5,158.8,159.8,158,159.1z"/>
</g>
<g>
	<path class="st1" d="M12.6,200.1c47.8,71.8,166.5,67.6,232.5,1.6c0,0-30.9-50.6-118.3-50.6C39.4,151,12.6,200.1,12.6,200.1z"/>
	<path class="st2" d="M12.6,200.1c0,0,24.1-112.4,193.8-69.4C206.4,130.7,165.8,256,12.6,200.1z"/>
	<path class="st3" d="M12.6,200.1c0,0,51.2-46.1,193.8-69.4C206.4,130.7,159.6,262,12.6,200.1z"/>
	<g>
		<path class="st2" d="M6.5,183.1c0,0-19-17.2,8.1-45.2C14.6,138,34.3,159.8,6.5,183.1z"/>
		<path class="st3" d="M6.5,183.1c0,0-3.2-15,8.1-45.2C14.6,138,34.8,161.6,6.5,183.1z"/>
	</g>
	<g>
		<path class="st2" d="M27.2,145.7c0,0-3.5-17.3,23-21.6C50.2,124.1,52.2,144.2,27.2,145.7z"/>
		<path class="st3" d="M27.2,145.7c0,0,4.4-9.6,23-21.6C50.2,124.1,51.7,145.4,27.2,145.7z"/>
	</g>
</g>
<g>
	<path class="st2" d="M97.1,178.7c0,0-7.2-35.8,47.6-44.8C144.7,133.8,148.8,175.5,97.1,178.7z"/>
	<path class="st3" d="M97.1,178.7c0,0,9.1-19.9,47.6-44.8C144.7,133.8,147.8,178,97.1,178.7z"/>
</g>
</svg>
