<?xml version="1.0" encoding="utf-8"?>
<!-- Generator: Adobe Illustrator 19.1.1, SVG Export Plug-In . SVG Version: 6.00 Build 0)  -->
<svg version="1.1" id="Calque_1" xmlns="http://www.w3.org/2000/svg" xmlns:xlink="http://www.w3.org/1999/xlink" x="0px" y="0px"
	 viewBox="-124 316.9 347 207.4" style="enable-background:new -124 316.9 347 207.4;" xml:space="preserve">
<style type="text/css">
	.st0{fill:#2C78B0;}
	.st1{fill:none;stroke:#FFFFFF;stroke-width:4;stroke-linecap:round;stroke-linejoin:round;stroke-miterlimit:10;}
	.st2{fill:#E8E3DD;}
	.st3{fill:#FFFFFF;}
	.st4{fill:#E94F16;}
	.st5{fill:#E5E2DA;}
	.st6{opacity:0.5;fill:#2C78B0;enable-background:new    ;}
	.st7{fill:none;stroke:#E94F16;stroke-width:9;stroke-miterlimit:10;}
	.st8{fill:#819834;}
	.st9{fill:#ACCB48;}
	.st10{fill:#EAF1D2;}
</style>
<g>
	<circle class="st0" cx="196.6" cy="425.1" r="26.4"/>
	<g>
		<g>
			<line class="st1" x1="196.5" y1="409.7" x2="196.5" y2="437.7"/>
			<line class="st1" x1="209.5" y1="424.7" x2="180.5" y2="424.7"/>
		</g>
	</g>
</g>
<g>
	<path class="st2" d="M28,483.8c0,0,3.1,0.1,3.1-2.7c0-2.8,0-108.5,0-108.5s0.1-4.2-4.2-4.2s-10.7,0-10.7,0V482L28,483.8z"/>
	<g>
		<path class="st3" d="M24.9,481.1c0,2.7,3.5,2.7,3.2,2.7h-135.2c-2.3,0-4.2-1.2-4.2-2.7V358.7c0-1.5,1.9-2.7,4.2-2.7H20.7
			c2.3,0,4.2,1.2,4.2,2.7V481.1z"/>
		<g>
			<rect x="-105.6" y="371" class="st0" width="53.4" height="57.4"/>
			<rect x="-105.6" y="417.4" class="st4" width="53.4" height="11"/>
			<rect x="-47.7" y="371" class="st4" width="66.9" height="21.9"/>
			<g>
				<rect x="-41.7" y="395" class="st5" width="25.6" height="1.8"/>
				<rect x="-47.7" y="397.6" class="st5" width="31.6" height="1.8"/>
				<rect x="-47.7" y="400.2" class="st5" width="29" height="1.8"/>
				<rect x="-47.7" y="402.9" class="st5" width="31.6" height="1.8"/>
				<rect x="-47.7" y="405.5" class="st5" width="31.1" height="1.8"/>
				<rect x="-47.7" y="408.2" class="st5" width="31.6" height="1.8"/>
				<rect x="-47.7" y="410.8" class="st5" width="26.7" height="1.8"/>
				<rect x="-47.7" y="413.5" class="st5" width="31.6" height="1.8"/>
				<rect x="-47.7" y="416.1" class="st5" width="29.9" height="1.8"/>
				<rect x="-47.7" y="418.8" class="st5" width="31.6" height="1.8"/>
				<rect x="-47.7" y="421.4" class="st5" width="28.2" height="1.8"/>
				<rect x="-47.7" y="424" class="st5" width="31.6" height="1.8"/>
				<rect x="-47.7" y="426.7" class="st5" width="24.6" height="1.8"/>
			</g>
			<g>
				<rect x="-6.8" y="395" class="st5" width="25.6" height="1.8"/>
				<rect x="-12.8" y="397.6" class="st5" width="31.6" height="1.8"/>
				<rect x="-12.8" y="400.2" class="st5" width="29" height="1.8"/>
				<rect x="-12.8" y="402.9" class="st5" width="31.6" height="1.8"/>
				<rect x="-12.8" y="405.5" class="st5" width="31.1" height="1.8"/>
				<rect x="-12.8" y="408.2" class="st5" width="31.6" height="1.8"/>
				<rect x="-12.8" y="410.8" class="st5" width="26.7" height="1.8"/>
				<rect x="-12.8" y="413.5" class="st5" width="31.6" height="1.8"/>
				<rect x="-12.8" y="416.1" class="st5" width="29.9" height="1.8"/>
				<rect x="-12.8" y="418.8" class="st5" width="31.6" height="1.8"/>
				<rect x="-12.8" y="421.4" class="st5" width="28.2" height="1.8"/>
				<rect x="-12.8" y="424" class="st5" width="31.6" height="1.8"/>
				<rect x="-12.8" y="426.7" class="st5" width="24.6" height="1.8"/>
			</g>
			<rect x="-105.6" y="442.3" class="st5" width="124.4" height="1.5"/>
			<rect x="-21.3" y="430.5" class="st0" width="40.1" height="9.2"/>
			<rect x="-21.3" y="445.8" class="st4" width="40.1" height="28"/>
			<rect x="-105.6" y="430.5" class="st4" width="82.1" height="9.2"/>
			<g>
				<rect x="-100.6" y="445.8" class="st5" width="35.4" height="2.2"/>
				<rect x="-105.6" y="449" class="st5" width="40.4" height="2.2"/>
				<rect x="-105.6" y="452.2" class="st5" width="40.4" height="2.2"/>
				<rect x="-105.6" y="455.5" class="st5" width="40.4" height="2.2"/>
				<rect x="-105.6" y="458.7" class="st5" width="40.4" height="2.2"/>
				<rect x="-105.6" y="461.9" class="st5" width="40.4" height="2.2"/>
				<rect x="-105.6" y="465.1" class="st5" width="40.4" height="2.2"/>
				<rect x="-105.6" y="468.4" class="st5" width="40.4" height="2.2"/>
				<rect x="-105.6" y="471.6" class="st5" width="32" height="2.2"/>
				<rect x="-58.6" y="445.8" class="st5" width="35.4" height="2.2"/>
				<rect x="-63.6" y="449" class="st5" width="40.4" height="2.2"/>
				<rect x="-63.6" y="452.2" class="st5" width="40.4" height="2.2"/>
				<rect x="-63.6" y="455.5" class="st5" width="40.4" height="2.2"/>
				<rect x="-63.6" y="458.7" class="st5" width="40.4" height="2.2"/>
				<rect x="-63.6" y="461.9" class="st5" width="40.4" height="2.2"/>
				<rect x="-63.6" y="465.1" class="st5" width="40.4" height="2.2"/>
				<rect x="-63.6" y="468.4" class="st5" width="40.4" height="2.2"/>
				<rect x="-63.6" y="471.6" class="st5" width="32" height="2.2"/>
			</g>
		</g>
	</g>
	<path class="st6" d="M-108.1,488.8c18.5,0.9,36.9,1.6,55.4,2.2c6.5,0.2,14.4,2.2,19.5-2.2c5-4.3,8.3-10.6,10.9-16.6
		c2.6-5.8,5.1-11.7,7.7-17.5c2.7-6.2,5.5-12.6,6.4-19.3c1.1-7.9-0.3-16,0-24c1-21.7,15-40.8,18.9-62.2C5,348.7,0,349.8-5.5,350.7
		c-5,0.8-10.2,0.4-15.3,0.3c-11.7-0.2-23.4-0.4-35.1-0.5c-8.4-0.1-16.8-0.3-25.2-0.4c-6.5-0.1-14.2-1.4-20.5,0
		c-3.8,0.8-10.8,1.5-13.3,4.7c-1.2,1.5-1.5,3.6-1.7,5.5c-2.5,23,2.6,46.3,1.6,69.4c-0.8,18.5-5.4,37.7,0.9,55.1
		c0.3,0.9,0.7,1.8,1.4,2.5C-111.7,488.6-109.8,488.8-108.1,488.8z"/>
</g>
<g>
	<circle class="st7" cx="-57.3" cy="479.3" r="26.4"/>
	<line class="st7" x1="-77.6" y1="496.2" x2="-37.7" y2="462.1"/>
</g>
<g>
	<path class="st3" d="M87.4,373.8c1.1,2.6,1.6,6.1,0.8,11.1c0,0.3-1.6,8.9-4,21.6c0.3,0.1,0.6,0.2,0.9,0.2c3.1,0.5,6.2,1,9.4,1.6
		c-0.4-1.7-0.4-3.6-0.1-5.5c0.5-2.9,1-5.1,1.4-7.3c0.6-3.3,1.2-6.3,2-10.7c0.8-4.7,1.5-8.7-0.1-10.8c-0.7-0.9-2-1.6-3.9-2.1
		C92.1,372.2,89.7,372.6,87.4,373.8"/>
	<path class="st3" d="M147.7,387.6c1.3,3.5,1.7,7.9,0,13.6c0,0.1-1.7,5.9-3.4,12.7c-0.8,3.3-2.8,6.2-5.5,8c-1.4,0.9-3,1.5-4.6,1.8
		c0.4,2.4,1.5,4.4,2.8,5.8c2.1,2.3,4.9,3.3,7.4,2.6c2.6-0.7,4.7-3.1,6.1-6.8c1.8-7,3.9-14.2,6.2-21.6c2.5-7.9,2.1-13.1-1.2-16.3
		C153.5,386.8,150.5,386.5,147.7,387.6"/>
	<path class="st3" d="M145.1,434.9c-3.5,0.9-7.4-0.3-10.2-3.4c-0.7-0.7-1.3-1.6-1.8-2.4c-4.3,20.3-9.6,46.5-12.1,65.8
		c0.3,0.6,1.3,2.6,4,4c4.7,0.3,9.4,0.5,14.2,0.5c1.7-25.1,4.6-45.6,9.4-66.3c-0.2,0.2-0.4,0.3-0.6,0.5
		C146.8,434.3,145.9,434.7,145.1,434.9"/>
	<path class="st3" d="M60.6,479l4.9,1.2l1.4,0.3l1.4,0.3l42.9,10.1l-0.7,2.9l-43-10.1l-1.4-0.3l-1.4-0.4l-4.8-1.1L60.6,479z
		 M121.5,500.1c-0.7-0.5-1.2-1.1-1.7-1.6c-1.1-1.3-1.6-2.4-1.7-2.7c-0.2-0.4-0.2-0.7-0.2-1l0,0c2.7-21,8.7-50.1,13.2-71
		c0-0.1,0-0.1,0-0.2c0.1-0.4,0.2-0.8,0.3-1.2c0.1-0.5,0.2-1,0.3-1.5c0.3-1.2,0.5-2.3,0.7-3.4c2.6-11.9,4.6-19.9,4.6-20.2
		c1.3-5.1,3.6-8.8,6.7-11c0.1-0.1,0.2-0.1,0.3-0.2c0.3-0.2,0.6-0.4,0.9-0.6c0.4-0.2,0.9-0.4,1.3-0.6c0.5-0.2,0.9-0.4,1.4-0.5
		c-0.7-0.3-1.5-0.5-2.3-0.8c-0.8-0.3-1.6-0.5-2.4-0.8c-0.1,0-0.1,0-0.2-0.1c-1-0.3-2-0.5-2.9-0.6c-5.8-0.7-9.2,3.1-11.3,12.1
		c-0.9,3.5-1.2,4.4-1.5,5.2c-0.3,0.8-0.5,1.5-1.4,5.2c-0.8,3.6-2.9,6.6-5.7,8.5c-2.6,1.7-5.6,2.3-8.5,1.7c-4-0.9-8.1-1.7-12.2-2.4
		c-0.7-0.1-1.4-0.3-2.1-0.4c-0.6-0.1-1.2-0.2-1.8-0.3c-3.6-0.6-7.3-1.3-10.9-1.9c-0.3-0.1-0.7-0.1-1-0.2c-0.5-0.1-1-0.3-1.4-0.5
		c-0.5-0.2-0.9-0.4-1.4-0.7c-4-2.3-6.1-6.8-5.3-12.3c1.1-6.9,1.3-9.5,1.3-9.5c0.8-6,3-10.5,6.5-13.5c0.4-0.3,0.8-0.6,1.2-0.9
		c0.1-0.1,0.2-0.1,0.2-0.2c0.3-0.2,0.7-0.4,1.1-0.6l0.1-0.1c0,0,0,0,0.1,0s0.2-0.1,0.3-0.1c-1-0.1-2.1-0.2-3.3-0.3
		c-0.8-0.1-1.6-0.1-2.5-0.2c-0.5,0-1.1,0-1.6,0c-0.8,0-1.5,0.1-2.2,0.2c-1.5,0.3-2.8,0.8-3.9,1.5c-3.2,2.1-5.1,6.3-5.8,12.5
		c-2.8,35.8-8.9,59.5-19.7,93.1c0.3,5.6,5.8,8.7,10.4,10.4l0.2,0.1c9.5,4.9,40.3,18.9,68.7,14.4c-1-0.3-1.9-0.6-2.7-1
		C123.1,501.3,122.2,500.7,121.5,500.1z"/>
</g>
<g>
	<g>
		<g>
			<g>
				<path class="st8" d="M111.7,436.1c-0.5-1.3-1.3-2.2-2.3-2.8l0,0c0,0-0.2-10.8-9.8-7.8l0.1,0.4c-0.9-0.4-2-0.8-3.2-1
					c-6.7-0.9-9.1,2.1-9.1,3.9c0,1.8,3.4,7.1,2.9,8.3s-5.5,3.5-4,10.9c1.5,7.4,3.6,9.3,3.6,9.3s-7.6,9.9-7.2,14.3
					c1.7,16.3,17.7,3.9,17.7,3.9s3.5-11.8,6.8-14.2s2.7-8.5,2-9.9C108.5,449.9,113.7,441.5,111.7,436.1z"/>
			</g>
		</g>
	</g>
	<g>
		<g>
			<g>
				<path class="st9" d="M82.5,431.7L82.5,431.7L82.5,431.7z"/>
				<path class="st9" d="M98,425.2c-1.3-0.2-2.4-0.3-3.4-0.1v1c-8.2-6-12.1,5.6-12.1,5.6l0,0l0,0l0,0c-1-0.2-2-0.5-2.8,0.5
					c-3.6,4.5-1.3,13.4-2.4,14.5c-1.1,1.1-3.6,6.3-1.3,9.7s1.9,14.1,1.9,14.1s8.5,2.5,9.5,6.1c-0.6-3.1,2.3-8.6,5.1-11.4
					c3.1-3.1-0.1-6.9-0.1-6.9s2.6-1.1,6.4-7.6c3.8-6.5-0.1-10.3-0.2-11.6c-0.1-1.3,4.9-5.2,5.4-6.9
					C104.6,430.5,104.7,426.5,98,425.2z"/>
			</g>
		</g>
		<g>
			<path class="st10" d="M85.5,445.2c0.9-10.5,2.8-13,2.8-13c-3.9-0.3-5.7,8.7-5.7,8.7l-5,25.8c0,0-0.5,9,8.1,10.5l4.9,0.8
				C83.8,474.8,84.3,459.5,85.5,445.2z"/>
		</g>
	</g>
</g>
<g>
	<circle class="st7" cx="134.7" cy="369.3" r="26.4"/>
	<line class="st7" x1="114.4" y1="386.2" x2="154.3" y2="352.1"/>
</g>
</svg>
